<Qucs Schematic 0.0.20>
<Properties>
  <View=406,247,1808,860,1.58345,0,0>
  <Grid=10,10,1>
  <DataSet=bias-t.dat>
  <DataDisplay=bias-t.dpl>
  <OpenDisplay=1>
  <Script=bias-t.m>
  <RunScript=0>
  <showFrame=0>
  <FrameText0=Title>
  <FrameText1=Drawn By:>
  <FrameText2=Date:>
  <FrameText3=Revision:>
</Properties>
<Symbol>
</Symbol>
<Components>
  <GND * 5 570 410 0 0 0 0>
  <GND * 5 470 410 0 0 0 0>
  <Pac P1 1 460 540 18 -26 0 1 "1" 1 "50 Ohm" 1 "0 dBm" 0 "1 GHz" 0 "26.85" 0>
  <GND * 5 460 590 0 0 0 0>
  <Pac P2 1 800 540 18 -26 0 1 "2" 1 "50 Ohm" 1 "0 dBm" 0 "1 GHz" 0 "26.85" 0>
  <GND * 5 800 590 0 0 0 0>
  <C C1 1 620 490 -26 17 0 0 "100 pF" 1 "" 0 "neutral" 0>
  <L L1 1 680 420 10 -26 0 1 "68 nH" 1 "" 0>
  <C C2 1 570 360 17 -26 0 1 "1 nF" 1 "" 0 "neutral" 0>
  <C C3 1 470 360 17 -26 0 1 "10 nF" 1 "" 0 "neutral" 0>
  <GND * 5 750 300 0 0 0 0>
  <Eqn Eqn1 1 1090 280 -28 15 0 0 "dBS11=dB(S[1,1])" 1 "dBS21=dB(S[2,1])" 1 "dBS12=dB(S[1,2])" 1 "dBS22=dB(S[2,2])" 1 "yes" 0>
  <.SP SP1 1 850 280 0 61 0 0 "lin" 1 "100 MHz" 1 "3 GHz" 1 "4500" 1 "no" 0 "1" 0 "2" 0 "no" 0 "no" 0>
</Components>
<Wires>
  <470 390 470 410 "" 0 0 0 "">
  <470 290 470 330 "" 0 0 0 "">
  <470 290 570 290 "" 0 0 0 "">
  <460 570 460 590 "" 0 0 0 "">
  <680 490 800 490 "" 0 0 0 "">
  <800 490 800 510 "" 0 0 0 "">
  <800 570 800 590 "" 0 0 0 "">
  <650 490 680 490 "" 0 0 0 "">
  <460 490 460 510 "" 0 0 0 "">
  <460 490 590 490 "" 0 0 0 "">
  <570 290 680 290 "" 0 0 0 "">
  <680 290 680 390 "" 0 0 0 "">
  <680 450 680 490 "" 0 0 0 "">
  <570 290 570 330 "" 0 0 0 "">
  <570 390 570 410 "" 0 0 0 "">
  <750 290 750 300 "" 0 0 0 "">
  <680 290 750 290 "" 0 0 0 "">
</Wires>
<Diagrams>
  <Rect 960 784 801 324 3 #c0c0c0 1 00 1 1e+08 2e+08 3e+09 0 -2 0.5 2 1 -1 0.5 1 315 0 225 "" "" "" "">
	<"dBS21" #0000ff 2 3 0 0 0>
	  <Mkr 4.02312e+08 214 -228 3 0 0>
	  <Mkr 2.28273e+08 55 -310 3 0 0>
	  <Mkr 2.9046e+09 565 -362 3 0 0>
	  <Mkr 2.34317e+09 310 -322 3 0 0>
  </Rect>
</Diagrams>
<Paintings>
</Paintings>
